{
    "workbench.colorCustomizations":
    {
        "statusBar.background" : "#303030",
        "statusBar.noFolderBackground" : "#222225",
        "statusBar.debuggingBackground": "#511f1f",
    },
    "files.trimTrailingWhitespace": true,
    "editor.rulers": [
        120
    ],
    "editor.minimap.maxColumn": 30,
    "window.zoomLevel": 1,
    "editor.fontSize": 11,
    "emmet.includeLanguages": {
        "vue": "html"
    },
    "eslint.options": {
        "extensions": [
            ".html",
            ".js",
            ".vue",
            ".jsx"
        ],
    },
    "eslint.autoFixOnSave": true,
    "eslint.provideLintTask": true,
    "eslint.validate": [
        "javascript",
        "javascriptreact",
        { "language": "vue", "autoFix": true },
    ],
    "materialTheme.fixIconsRunning": false,
    "workbench.iconTheme": "eq-material-theme-icons-ocean",

    "python.linting.enabled": true,
    "python.linting.lintOnSave": true,

    "[vue]": {
        "editor.tabSize": 2
    },
    "window.menuBarVisibility": "toggle",
    "workbench.activityBar.visible": false,

}
